burstInterval=0
msgsPerBurst=100
Time, Count, Cumulative Size, Avg Size
2017-08-27 18:52:00, 0, 0, 0
2017-08-27 18:52:01, 100, 836298, 8362
2017-08-27 18:52:02, 246, 2057939, 8365
2017-08-27 18:52:03, 321, 2685744, 8366
2017-08-27 18:52:04, 351, 2935565, 8363
2017-08-27 18:52:05, 360, 3013612, 8371
2017-08-27 18:52:06, 382, 3196472, 8367
2017-08-27 18:52:07, 393, 3289956, 8371
2017-08-27 18:52:08, 382, 3195841, 8366
2017-08-27 18:52:09, 370, 3094968, 8364
2017-08-27 18:52:10, 378, 3161978, 8365
2017-08-27 18:52:11, 385, 3221554, 8367
2017-08-27 18:52:12, 393, 3289750, 8370
2017-08-27 18:52:13, 388, 3246052, 8366
2017-08-27 18:52:14, 349, 2921711, 8371
2017-08-27 18:52:15, 333, 2786221, 8367
2017-08-27 18:52:16, 309, 2587036, 8372
2017-08-27 18:52:17, 371, 3104505, 8367
2017-08-27 18:52:18, 382, 3193384, 8359
2017-08-27 18:52:19, 381, 3185249, 8360
2017-08-27 18:52:20, 380, 3180604, 8370
2017-08-27 18:52:21, 384, 3213255, 8367
2017-08-27 18:52:22, 381, 3189404, 8371
2017-08-27 18:52:23, 374, 3127742, 8362
2017-08-27 18:52:24, 388, 3244614, 8362
2017-08-27 18:52:25, 365, 3057162, 8375
2017-08-27 18:52:26, 397, 3323145, 8370
2017-08-27 18:52:27, 396, 3313244, 8366
2017-08-27 18:52:28, 393, 3289208, 8369
2017-08-27 18:52:29, 397, 3319911, 8362
2017-08-27 18:52:30, 394, 3296439, 8366
2017-08-27 18:52:31, 396, 3312530, 8364
2017-08-27 18:52:32, 396, 3311843, 8363
2017-08-27 18:52:33, 385, 3221855, 8368
