burstInterval=0
msgsPerBurst=1000
Time, Count, Cumulative Size, Avg Size
2017-08-22 02:36:41, 0, 0, 0
2017-08-22 02:36:42, 37, 309242, 8357
2017-08-22 02:36:43, 201, 1681637, 8366
2017-08-22 02:36:44, 283, 2366112, 8360
2017-08-22 02:36:45, 355, 2968938, 8363
2017-08-22 02:36:46, 385, 3223359, 8372
2017-08-22 02:36:47, 388, 3246692, 8367
2017-08-22 02:36:48, 366, 3064634, 8373
2017-08-22 02:36:49, 386, 3227897, 8362
2017-08-22 02:36:50, 376, 3145099, 8364
2017-08-22 02:36:51, 378, 3163412, 8368
2017-08-22 02:36:52, 383, 3203540, 8364
2017-08-22 02:36:53, 377, 3155119, 8369
2017-08-22 02:36:54, 373, 3122095, 8370
2017-08-22 02:36:55, 397, 3320493, 8363
2017-08-22 02:36:56, 401, 3356660, 8370
2017-08-22 02:36:57, 403, 3373234, 8370
2017-08-22 02:36:58, 401, 3355605, 8368
2017-08-22 02:36:59, 406, 3397614, 8368
2017-08-22 02:37:00, 399, 3340634, 8372
2017-08-22 02:37:01, 402, 3362092, 8363
2017-08-22 02:37:02, 404, 3381783, 8370
2017-08-22 02:37:03, 407, 3405434, 8367
2017-08-22 02:37:04, 404, 3383248, 8374
2017-08-22 02:37:05, 401, 3354276, 8364
2017-08-22 02:37:06, 396, 3314563, 8370
2017-08-22 02:37:07, 398, 3330442, 8367
2017-08-22 02:37:08, 402, 3362654, 8364
2017-08-22 02:37:09, 403, 3371578, 8366
2017-08-22 02:37:10, 402, 3364900, 8370
2017-08-22 02:37:11, 406, 3397783, 8368
2017-08-22 02:37:12, 406, 3396518, 8365
2017-08-22 02:37:13, 409, 3424348, 8372
2017-08-22 02:37:14, 408, 3415326, 8370
2017-08-22 02:37:15, 401, 3355624, 8368
2017-08-22 02:37:16, 399, 3339346, 8369
2017-08-22 02:37:17, 406, 3397424, 8368
2017-08-22 02:37:18, 408, 3414712, 8369
2017-08-22 02:37:19, 409, 3421980, 8366
2017-08-22 02:37:20, 405, 3387925, 8365
2017-08-22 02:37:21, 229, 1916338, 8368
