Time, ID, Hash, Size
2017-08-27 20:42:06, 0, 0x1d746762, 104222
2017-08-27 20:42:06, 1, 0x7961b405, 104310
2017-08-27 20:42:06, 2, 0x1c85eda8, 104089
2017-08-27 20:42:06, 3, 0xbb176f6c, 104142
2017-08-27 20:42:06, 4, 0x4b548b4, 104104
2017-08-27 20:42:06, 5, 0x201165a3, 104325
2017-08-27 20:42:07, 6, 0x250562b7, 104132
2017-08-27 20:42:07, 7, 0xc503028e, 104297
2017-08-27 20:42:07, 8, 0x544692b0, 104291
2017-08-27 20:42:07, 9, 0x9ebaca2c, 104219
2017-08-27 20:42:07, 10, 0xc67557e5, 104186
2017-08-27 20:42:07, 11, 0x1c37b97e, 103897
2017-08-27 20:42:07, 12, 0x61ce34ec, 104405
2017-08-27 20:42:07, 13, 0xcad5c1e8, 103762
2017-08-27 20:42:07, 14, 0xb062f9e8, 104100
2017-08-27 20:42:07, 15, 0x6b31790d, 104357
2017-08-27 20:42:07, 16, 0xdc5d847b, 104158
2017-08-27 20:42:07, 17, 0xaec0e879, 104136
2017-08-27 20:42:07, 18, 0x488678f8, 104205
2017-08-27 20:42:07, 19, 0x906a58f3, 104056
2017-08-27 20:42:07, 20, 0x1459ba0e, 104297
2017-08-27 20:42:07, 21, 0x95aa4989, 103937
2017-08-27 20:42:07, 22, 0x4d57857f, 104401
2017-08-27 20:42:08, 23, 0x541242d6, 104451
2017-08-27 20:42:08, 24, 0x9d8d643e, 104622
2017-08-27 20:42:08, 25, 0x5f3b8e93, 104485
2017-08-27 20:42:08, 26, 0xd0b278cf, 104104
2017-08-27 20:42:08, 27, 0x3b6d7656, 104165
2017-08-27 20:42:08, 28, 0xfb1e62f, 104575
2017-08-27 20:42:08, 29, 0xfe8a3838, 104292
2017-08-27 20:42:08, 30, 0xac2cb2f6, 104343
2017-08-27 20:42:08, 31, 0x39422efd, 104304
2017-08-27 20:42:08, 32, 0xe4f1ccce, 104299
2017-08-27 20:42:08, 33, 0x5cd0d5d5, 104449
2017-08-27 20:42:08, 34, 0xfb188121, 104176
2017-08-27 20:42:08, 35, 0xa390e759, 103928
2017-08-27 20:42:08, 36, 0x1de98f03, 103781
2017-08-27 20:42:08, 37, 0xb7e3621d, 103732
2017-08-27 20:42:08, 38, 0xef963fe0, 104188
2017-08-27 20:42:08, 39, 0x256646a4, 104252
2017-08-27 20:42:08, 40, 0x6f71c5f7, 103980
2017-08-27 20:42:08, 41, 0x983439a4, 104227
2017-08-27 20:42:08, 42, 0xfa5fb161, 104159
2017-08-27 20:42:08, 43, 0x479d893b, 104221
2017-08-27 20:42:08, 44, 0xaed4c2f4, 104256
2017-08-27 20:42:09, 45, 0x3d68a9c3, 104072
2017-08-27 20:42:09, 46, 0x3554a04d, 104029
2017-08-27 20:42:09, 47, 0x65446090, 104311
2017-08-27 20:42:09, 48, 0x5a1d1d4a, 103976
2017-08-27 20:42:09, 49, 0x99cc092a, 103706
2017-08-27 20:42:09, 50, 0x7c61ab1b, 104063
2017-08-27 20:42:09, 51, 0xd36f575c, 104249
2017-08-27 20:42:09, 52, 0xf4317f93, 104635
2017-08-27 20:42:09, 53, 0x2fc79acd, 104064
2017-08-27 20:42:09, 54, 0x4809d1d0, 103557
2017-08-27 20:42:09, 55, 0x4dfc87f0, 104287
2017-08-27 20:42:09, 56, 0xe02401e6, 103846
2017-08-27 20:42:09, 57, 0x3eaa5585, 104526
2017-08-27 20:42:09, 58, 0x17303df7, 104384
2017-08-27 20:42:09, 59, 0x38598cbf, 104306
2017-08-27 20:42:09, 60, 0x5daaecd, 103868
2017-08-27 20:42:09, 61, 0x92c28f44, 104066
2017-08-27 20:42:09, 62, 0xd6510ea1, 104289
2017-08-27 20:42:09, 63, 0x2c88b607, 104269
2017-08-27 20:42:09, 64, 0x74cd3b67, 104104
2017-08-27 20:42:09, 65, 0xfaf5ace0, 104088
2017-08-27 20:42:09, 66, 0x47cea077, 104504
2017-08-27 20:42:09, 67, 0x9ab731ae, 104185
2017-08-27 20:42:09, 68, 0xe03f182c, 104005
2017-08-27 20:42:09, 69, 0xb864889a, 103848
2017-08-27 20:42:09, 70, 0xa4dc41d8, 104235
2017-08-27 20:42:09, 71, 0x3266ba0b, 104485
2017-08-27 20:42:09, 72, 0x43b5d35d, 104451
2017-08-27 20:42:09, 73, 0x2a9e9322, 104134
2017-08-27 20:42:09, 74, 0x781d7780, 104401
2017-08-27 20:42:09, 75, 0x5f164a25, 104375
2017-08-27 20:42:10, 76, 0xd9d393ec, 103765
2017-08-27 20:42:10, 77, 0x3edca921, 104424
2017-08-27 20:42:10, 78, 0x9fdb50c9, 103763
2017-08-27 20:42:10, 79, 0xe0f60d52, 104359
2017-08-27 20:42:10, 80, 0x7c2a3910, 104297
2017-08-27 20:42:10, 81, 0xfdc6f844, 103911
2017-08-27 20:42:10, 82, 0xe656c4fe, 104339
2017-08-27 20:42:10, 83, 0xd1530050, 103981
2017-08-27 20:42:10, 84, 0x725c9d9a, 104011
2017-08-27 20:42:10, 85, 0xe7129543, 104088
2017-08-27 20:42:10, 86, 0x3f067da2, 104032
2017-08-27 20:42:10, 87, 0x159a4866, 104417
2017-08-27 20:42:10, 88, 0x4ccc6ef, 104224
2017-08-27 20:42:10, 89, 0x9189336b, 104084
2017-08-27 20:42:10, 90, 0x1763dc3f, 104370
2017-08-27 20:42:10, 91, 0x4f86a99e, 104378
2017-08-27 20:42:10, 92, 0x88e9c17, 104165
2017-08-27 20:42:10, 93, 0xf0789e2d, 104030
2017-08-27 20:42:10, 94, 0x194d77a1, 104316
2017-08-27 20:42:10, 95, 0x2877e32b, 104245
2017-08-27 20:42:10, 96, 0x7820413b, 104501
2017-08-27 20:42:10, 97, 0xdb1c3d63, 104312
2017-08-27 20:42:10, 98, 0x814aecf1, 104207
2017-08-27 20:42:10, 99, 0xd4f655a1, 103866
2017-08-27 20:42:10, 100, 0xe8f134db, 104228
2017-08-27 20:42:10, 101, 0xb72a21f9, 104748
2017-08-27 20:42:10, 102, 0xea784d30, 104215
2017-08-27 20:42:10, 103, 0x7fc0a92e, 104389
2017-08-27 20:42:10, 104, 0x7e235277, 104078
2017-08-27 20:42:10, 105, 0xb1d572e9, 104193
2017-08-27 20:42:10, 106, 0x47242ce, 104123
2017-08-27 20:42:11, 107, 0x76c597c4, 104127
2017-08-27 20:42:11, 108, 0xf87b6c48, 104395
2017-08-27 20:42:11, 109, 0x6aae77bd, 104179
2017-08-27 20:42:11, 110, 0xd98653cd, 104064
2017-08-27 20:42:11, 111, 0xb0420053, 104279
2017-08-27 20:42:11, 112, 0x14f1df2c, 104398
2017-08-27 20:42:11, 113, 0x77ef936e, 104095
2017-08-27 20:42:11, 114, 0x75e2bb7b, 104504
2017-08-27 20:42:11, 115, 0xb9062bf6, 104408
2017-08-27 20:42:11, 116, 0xcb969e0, 103973
2017-08-27 20:42:11, 117, 0x2d82a98f, 104432
2017-08-27 20:42:11, 118, 0x87e3bbe1, 104399
2017-08-27 20:42:11, 119, 0x25a77028, 103798
2017-08-27 20:42:11, 120, 0x99cb1a1c, 104456
2017-08-27 20:42:11, 121, 0x26d4352d, 104695
2017-08-27 20:42:11, 122, 0x869aa325, 104499
2017-08-27 20:42:11, 123, 0x8ae9bd0, 104042
2017-08-27 20:42:11, 124, 0xb3262c29, 103638
2017-08-27 20:42:11, 125, 0xc7e0f1f8, 103812
2017-08-27 20:42:11, 126, 0x57b0b25a, 104178
2017-08-27 20:42:11, 127, 0x726913d, 104221
2017-08-27 20:42:11, 128, 0xc33f7861, 104595
2017-08-27 20:42:11, 129, 0xd605f4f5, 104207
2017-08-27 20:42:11, 130, 0x41a9150b, 104524
2017-08-27 20:42:11, 131, 0xd6c6fc47, 103998
2017-08-27 20:42:11, 132, 0xd6c0b370, 104209
2017-08-27 20:42:11, 133, 0x2aeff4ed, 104176
2017-08-27 20:42:11, 134, 0xc5a2ae17, 104150
2017-08-27 20:42:11, 135, 0x18e9894c, 104238
2017-08-27 20:42:11, 136, 0xe88fbef4, 103854
2017-08-27 20:42:11, 137, 0x5128bd1d, 103532
2017-08-27 20:42:11, 138, 0xdac3fe26, 104335
2017-08-27 20:42:12, 139, 0x31f72210, 103992
2017-08-27 20:42:12, 140, 0xcb4a046e, 104032
2017-08-27 20:42:12, 141, 0x224e4f20, 104079
2017-08-27 20:42:12, 142, 0xfe106374, 104021
2017-08-27 20:42:12, 143, 0x9043648d, 103876
2017-08-27 20:42:12, 144, 0x50c67b28, 104095
2017-08-27 20:42:12, 145, 0x5db1515a, 104187
2017-08-27 20:42:12, 146, 0x8c935252, 104044
2017-08-27 20:42:12, 147, 0x437fec81, 104333
2017-08-27 20:42:12, 148, 0xa683f75e, 103818
2017-08-27 20:42:12, 149, 0x87d31e42, 104312
2017-08-27 20:42:12, 150, 0xf659acd7, 103893
2017-08-27 20:42:12, 151, 0x74346130, 103868
2017-08-27 20:42:12, 152, 0x4e3a8593, 104177
2017-08-27 20:42:12, 153, 0x94298488, 104356
2017-08-27 20:42:12, 154, 0x123034eb, 104142
2017-08-27 20:42:12, 155, 0xbd5cb871, 104301
2017-08-27 20:42:12, 156, 0x9f106306, 103871
2017-08-27 20:42:12, 157, 0xb9ad665a, 103980
2017-08-27 20:42:12, 158, 0xcd9a91f4, 103960
2017-08-27 20:42:12, 159, 0xa782181b, 104139
2017-08-27 20:42:12, 160, 0x2d1b9997, 104057
2017-08-27 20:42:12, 161, 0xb7880b7d, 104409
2017-08-27 20:42:12, 162, 0x53bcf54a, 104188
2017-08-27 20:42:12, 163, 0xd92c2387, 104037
2017-08-27 20:42:12, 164, 0x3a9f4af, 104275
2017-08-27 20:42:12, 165, 0x6060e0b2, 104476
2017-08-27 20:42:12, 166, 0xf13b1324, 104704
2017-08-27 20:42:12, 167, 0xd10ba123, 104246
2017-08-27 20:42:12, 168, 0xccb64fa3, 104061
2017-08-27 20:42:12, 169, 0x1f632847, 104235
2017-08-27 20:42:12, 170, 0xb7a6d13a, 104414
2017-08-27 20:42:13, 171, 0x9277123b, 104074
2017-08-27 20:42:13, 172, 0x5042229b, 104356
2017-08-27 20:42:13, 173, 0x7ab78214, 104314
2017-08-27 20:42:13, 174, 0x21dc2930, 104296
2017-08-27 20:42:13, 175, 0x17d56781, 104170
2017-08-27 20:42:13, 176, 0xaf59e242, 104319
2017-08-27 20:42:13, 177, 0xaf157e04, 103951
2017-08-27 20:42:13, 178, 0xa515c939, 104430
2017-08-27 20:42:13, 179, 0xdcb1532b, 104173
2017-08-27 20:42:13, 180, 0xcb5235bc, 104258
2017-08-27 20:42:13, 181, 0x3f23cbe7, 104531
2017-08-27 20:42:13, 182, 0xed61914e, 104599
2017-08-27 20:42:13, 183, 0xb957280b, 104352
2017-08-27 20:42:13, 184, 0x9491b5c1, 104018
2017-08-27 20:42:13, 185, 0xb9dd6738, 104170
2017-08-27 20:42:13, 186, 0x737c2e37, 104193
2017-08-27 20:42:13, 187, 0xe8aeda80, 104368
2017-08-27 20:42:13, 188, 0xcb1ffa19, 104547
2017-08-27 20:42:13, 189, 0xdef3aef5, 103900
2017-08-27 20:42:13, 190, 0xd606eda2, 104187
2017-08-27 20:42:13, 191, 0xf3eba307, 104033
2017-08-27 20:42:13, 192, 0xf8188765, 104211
2017-08-27 20:42:13, 193, 0x34f2e658, 104218
2017-08-27 20:42:13, 194, 0xb383e08f, 103982
2017-08-27 20:42:13, 195, 0x9c80bde1, 104014
2017-08-27 20:42:13, 196, 0x32696036, 104230
2017-08-27 20:42:13, 197, 0xe876b949, 104224
2017-08-27 20:42:13, 198, 0xd439368c, 104375
2017-08-27 20:42:13, 199, 0x14d174d2, 104439
2017-08-27 20:42:13, 200, 0x23a8d581, 104115
2017-08-27 20:42:13, 201, 0x657c8f50, 104272
2017-08-27 20:42:13, 202, 0xb75008d7, 103846
2017-08-27 20:42:14, 203, 0xb782519f, 104089
2017-08-27 20:42:14, 204, 0xdac7fe68, 104204
2017-08-27 20:42:14, 205, 0x3b11c25, 104322
2017-08-27 20:42:14, 206, 0xd89a044e, 104243
2017-08-27 20:42:14, 207, 0x29368f10, 104174
2017-08-27 20:42:14, 208, 0xda9ace17, 104265
2017-08-27 20:42:14, 209, 0xebd74ce4, 104208
2017-08-27 20:42:14, 210, 0x85fc243d, 104336
2017-08-27 20:42:14, 211, 0x8f1ca1e0, 103682
2017-08-27 20:42:14, 212, 0x1a9aa83a, 104295
2017-08-27 20:42:14, 213, 0xe3d41454, 104109
2017-08-27 20:42:14, 214, 0x76b26d28, 104064
2017-08-27 20:42:14, 215, 0x8c491988, 103980
2017-08-27 20:42:14, 216, 0xc3bafdcd, 104174
2017-08-27 20:42:14, 217, 0x63aaa46c, 104211
2017-08-27 20:42:14, 218, 0x2cc9dfa1, 104393
2017-08-27 20:42:14, 219, 0xc86d1c67, 104094
2017-08-27 20:42:14, 220, 0x2e4b4d54, 104430
2017-08-27 20:42:14, 221, 0x2a18787f, 104114
2017-08-27 20:42:14, 222, 0xe191a384, 104142
2017-08-27 20:42:14, 223, 0x52699be2, 104406
2017-08-27 20:42:14, 224, 0x4edce98f, 104110
2017-08-27 20:42:14, 225, 0x6325332, 104233
2017-08-27 20:42:14, 226, 0xf4da6301, 104090
2017-08-27 20:42:14, 227, 0xc1d0c1ad, 104206
2017-08-27 20:42:14, 228, 0xf994ebfc, 104048
2017-08-27 20:42:14, 229, 0x5ae42c1, 104180
2017-08-27 20:42:14, 230, 0xd753c3b6, 104660
2017-08-27 20:42:14, 231, 0xd33aaf5f, 103914
2017-08-27 20:42:14, 232, 0x1c7834c4, 103828
2017-08-27 20:42:14, 233, 0xa03adc55, 103998
2017-08-27 20:42:14, 234, 0x408bead4, 104463
2017-08-27 20:42:15, 235, 0xc03ad3fb, 104098
2017-08-27 20:42:15, 236, 0x309d9dfb, 104524
2017-08-27 20:42:15, 237, 0x4ffc9861, 104300
2017-08-27 20:42:15, 238, 0x953a0374, 104246
2017-08-27 20:42:15, 239, 0x19b2241f, 104169
2017-08-27 20:42:15, 240, 0xff4cd36, 104044
2017-08-27 20:42:15, 241, 0xa1e35ec3, 103949
2017-08-27 20:42:15, 242, 0x28d1ba15, 104261
2017-08-27 20:42:15, 243, 0xbd0b9aeb, 104227
2017-08-27 20:42:15, 244, 0xbfc4af36, 104209
2017-08-27 20:42:15, 245, 0xd4cb828, 103963
2017-08-27 20:42:15, 246, 0xae96e8e4, 103870
2017-08-27 20:42:15, 247, 0xb77f775d, 104170
2017-08-27 20:42:15, 248, 0xb8ff0ea9, 104389
2017-08-27 20:42:15, 249, 0x592f8edc, 104489
2017-08-27 20:42:15, 250, 0xb59b06ac, 104605
2017-08-27 20:42:15, 251, 0x8f7af5f8, 104179
2017-08-27 20:42:15, 252, 0x12e4b135, 103751
2017-08-27 20:42:15, 253, 0x3152cd67, 104206
2017-08-27 20:42:15, 254, 0xa7ec1a8a, 104306
2017-08-27 20:42:15, 255, 0x37ec91f2, 103960
2017-08-27 20:42:15, 256, 0x6bdb2f0b, 104396
2017-08-27 20:42:15, 257, 0x5c513db0, 104185
2017-08-27 20:42:15, 258, 0xf67b2f87, 104191
2017-08-27 20:42:15, 259, 0xd6326655, 104558
2017-08-27 20:42:15, 260, 0x39edf3f, 104132
2017-08-27 20:42:15, 261, 0xbff0bbf1, 104273
2017-08-27 20:42:15, 262, 0xc98587ae, 103936
2017-08-27 20:42:15, 263, 0xbf000c50, 104235
2017-08-27 20:42:15, 264, 0x2c913e62, 104244
2017-08-27 20:42:15, 265, 0xfe6b0d51, 104174
2017-08-27 20:42:15, 266, 0xd6aec18b, 104279
2017-08-27 20:42:15, 267, 0xbf4743ce, 104073
2017-08-27 20:42:16, 268, 0x883fb95f, 104134
2017-08-27 20:42:16, 269, 0xa4c18715, 104192
2017-08-27 20:42:16, 270, 0x10527f69, 104295
2017-08-27 20:42:16, 271, 0x7df3f7d0, 103873
2017-08-27 20:42:16, 272, 0x1e26760e, 103790
2017-08-27 20:42:16, 273, 0x3e916274, 103838
2017-08-27 20:42:16, 274, 0x86debd5f, 104014
2017-08-27 20:42:16, 275, 0x19a1b7fb, 104584
2017-08-27 20:42:16, 276, 0xef32193a, 103749
2017-08-27 20:42:16, 277, 0x2ec5b946, 104170
2017-08-27 20:42:16, 278, 0x5ecb3f3e, 104413
2017-08-27 20:42:16, 279, 0x52fe0ba4, 104069
2017-08-27 20:42:16, 280, 0x61169eaf, 104005
2017-08-27 20:42:16, 281, 0x8d978a84, 104268
2017-08-27 20:42:16, 282, 0x855d0b84, 103908
2017-08-27 20:42:16, 283, 0x398ff95f, 104184
2017-08-27 20:42:16, 284, 0xf146aad7, 104361
2017-08-27 20:42:16, 285, 0x6ba1b89c, 104273
2017-08-27 20:42:16, 286, 0xb6fe6824, 103892
2017-08-27 20:42:16, 287, 0xe553c56e, 104127
2017-08-27 20:42:16, 288, 0x6eb4cb0e, 104026
2017-08-27 20:42:16, 289, 0x40138a61, 103913
2017-08-27 20:42:16, 290, 0xd6dbb646, 104576
2017-08-27 20:42:16, 291, 0x2480c49c, 104119
2017-08-27 20:42:16, 292, 0xc4dcced6, 104049
2017-08-27 20:42:16, 293, 0x9de5ee59, 104371
2017-08-27 20:42:16, 294, 0x244a704c, 104344
2017-08-27 20:42:16, 295, 0xdc6a7771, 104250
2017-08-27 20:42:16, 296, 0x7fe22a73, 103962
2017-08-27 20:42:16, 297, 0x9519dee8, 104137
2017-08-27 20:42:16, 298, 0x4ae87d12, 104200
2017-08-27 20:42:16, 299, 0xa719c7e4, 103802
2017-08-27 20:42:17, 300, 0x514f2b5, 104174
2017-08-27 20:42:17, 301, 0x8ed9af88, 103970
2017-08-27 20:42:17, 302, 0x498cf818, 104394
2017-08-27 20:42:17, 303, 0xbe445d64, 104453
2017-08-27 20:42:17, 304, 0xcc25f9a2, 104254
2017-08-27 20:42:17, 305, 0xe49fc0df, 103936
2017-08-27 20:42:17, 306, 0xe52fbb3a, 104096
2017-08-27 20:42:17, 307, 0x16dab0f7, 104113
2017-08-27 20:42:17, 308, 0x9376366e, 104156
2017-08-27 20:42:17, 309, 0xf06518fe, 104349
2017-08-27 20:42:17, 310, 0x6b6ab465, 103789
2017-08-27 20:42:17, 311, 0xf601375c, 104233
2017-08-27 20:42:17, 312, 0x116f96eb, 104353
2017-08-27 20:42:17, 313, 0x675e8c9e, 104472
2017-08-27 20:42:17, 314, 0xf68f7b77, 104306
2017-08-27 20:42:17, 315, 0xdbbcfe2b, 104599
2017-08-27 20:42:17, 316, 0x28edd81d, 103927
2017-08-27 20:42:17, 317, 0x44fce13, 104203
2017-08-27 20:42:17, 318, 0xad10cf47, 104727
2017-08-27 20:42:17, 319, 0x7ca28ae1, 103896
2017-08-27 20:42:17, 320, 0xcf02e207, 104125
2017-08-27 20:42:17, 321, 0x2a14eb75, 103989
2017-08-27 20:42:17, 322, 0xa3089c6f, 104090
2017-08-27 20:42:17, 323, 0x1258adfe, 104069
2017-08-27 20:42:17, 324, 0x5924a072, 103973
2017-08-27 20:42:17, 325, 0x72b6985e, 104501
2017-08-27 20:42:17, 326, 0x11163e28, 104196
2017-08-27 20:42:17, 327, 0x1489646e, 104298
2017-08-27 20:42:17, 328, 0x94959dfb, 104295
2017-08-27 20:42:17, 329, 0x74804d6d, 104194
2017-08-27 20:42:17, 330, 0x1e5478f7, 104200
2017-08-27 20:42:17, 331, 0xcbf9bcf9, 104446
2017-08-27 20:42:17, 332, 0x4930bd67, 104191
2017-08-27 20:42:18, 333, 0x1a5689cb, 104142
2017-08-27 20:42:18, 334, 0xcb143ab, 104240
2017-08-27 20:42:18, 335, 0x5a3281ef, 104095
2017-08-27 20:42:18, 336, 0x74d30b95, 103926
2017-08-27 20:42:18, 337, 0x7fbf41e1, 104410
2017-08-27 20:42:18, 338, 0x3fa4a083, 104268
2017-08-27 20:42:18, 339, 0x5889fda5, 104223
2017-08-27 20:42:18, 340, 0x7dd79491, 104114
2017-08-27 20:42:18, 341, 0xf39fcfaa, 104138
2017-08-27 20:42:18, 342, 0xe69240f3, 104571
2017-08-27 20:42:18, 343, 0x711c3321, 104103
2017-08-27 20:42:18, 344, 0x87c2ca19, 104357
2017-08-27 20:42:18, 345, 0x615444af, 103774
2017-08-27 20:42:18, 346, 0xd18b72f7, 104085
2017-08-27 20:42:18, 347, 0x44e39bab, 104286
2017-08-27 20:42:18, 348, 0x369bf5cd, 104033
2017-08-27 20:42:18, 349, 0x93c4fdae, 104421
2017-08-27 20:42:18, 350, 0xd32b9038, 104362
2017-08-27 20:42:18, 351, 0x5101010e, 104269
2017-08-27 20:42:18, 352, 0xa753a815, 103904
2017-08-27 20:42:18, 353, 0xba74a901, 104164
2017-08-27 20:42:18, 354, 0x8246f5ea, 103998
2017-08-27 20:42:18, 355, 0xf8f1e157, 104168
2017-08-27 20:42:18, 356, 0x4666c4ec, 104227
2017-08-27 20:42:18, 357, 0x5964055, 103764
2017-08-27 20:42:18, 358, 0x3eaa7a85, 103973
2017-08-27 20:42:18, 359, 0x692faf89, 104064
2017-08-27 20:42:18, 360, 0x50722b31, 104152
2017-08-27 20:42:18, 361, 0xfe5a332e, 104044
2017-08-27 20:42:18, 362, 0xa263c7e6, 104181
2017-08-27 20:42:18, 363, 0x309ec1dc, 104488
2017-08-27 20:42:18, 364, 0xe3c59924, 104494
2017-08-27 20:42:19, 365, 0x7e645d76, 104375
2017-08-27 20:42:19, 366, 0x13f88015, 104107
2017-08-27 20:42:19, 367, 0xa7756a15, 104105
2017-08-27 20:42:19, 368, 0x32f6490b, 104115
2017-08-27 20:42:19, 369, 0x7bef7b89, 104333
2017-08-27 20:42:19, 370, 0xc8f929bc, 104281
2017-08-27 20:42:19, 371, 0x50504c5b, 104119
2017-08-27 20:42:19, 372, 0x46c475d8, 104289
2017-08-27 20:42:19, 373, 0xc322ee5c, 104331
2017-08-27 20:42:19, 374, 0x7573784f, 104228
2017-08-27 20:42:19, 375, 0xdb530a92, 103847
2017-08-27 20:42:19, 376, 0x71993161, 104207
2017-08-27 20:42:19, 377, 0x583e64bd, 104324
2017-08-27 20:42:19, 378, 0x5dcad75c, 104533
2017-08-27 20:42:19, 379, 0x944695e9, 104043
2017-08-27 20:42:19, 380, 0x40d447c9, 104242
2017-08-27 20:42:19, 381, 0xb8d01ad4, 104506
2017-08-27 20:42:19, 382, 0xac1b9c42, 104058
2017-08-27 20:42:19, 383, 0xcbd5b52d, 104091
2017-08-27 20:42:19, 384, 0x868f53cb, 104359
2017-08-27 20:42:19, 385, 0xc5978123, 103959
2017-08-27 20:42:19, 386, 0x9754e65a, 104446
2017-08-27 20:42:19, 387, 0x3c7a0b55, 103957
2017-08-27 20:42:19, 388, 0x66ad01d5, 104233
2017-08-27 20:42:19, 389, 0x26a2e3de, 104004
2017-08-27 20:42:19, 390, 0x269f9dda, 104304
2017-08-27 20:42:19, 391, 0xe37e84f8, 104375
2017-08-27 20:42:19, 392, 0xbee11339, 104131
2017-08-27 20:42:19, 393, 0xc472203b, 103896
2017-08-27 20:42:19, 394, 0xdc02bf78, 104383
2017-08-27 20:42:19, 395, 0x3f926be6, 103847
2017-08-27 20:42:19, 396, 0x7bd16847, 104000
2017-08-27 20:42:19, 397, 0x4e75b137, 104027
2017-08-27 20:42:20, 398, 0xf3bf63e6, 104063
2017-08-27 20:42:20, 399, 0x1edad912, 104233
2017-08-27 20:42:20, 400, 0xce71a8d0, 104282
2017-08-27 20:42:20, 401, 0xb5014c5c, 104811
2017-08-27 20:42:20, 402, 0x3fbaf4b9, 104247
2017-08-27 20:42:20, 403, 0xd2fdef1a, 104070
2017-08-27 20:42:20, 404, 0xfab08035, 104037
2017-08-27 20:42:20, 405, 0x4d0ff1b2, 104117
2017-08-27 20:42:20, 406, 0x9d423350, 104491
2017-08-27 20:42:20, 407, 0xc98b451, 103928
2017-08-27 20:42:20, 408, 0xf8e5a56e, 104086
2017-08-27 20:42:20, 409, 0xa2e7085d, 103959
2017-08-27 20:42:20, 410, 0xb822cf7, 104019
2017-08-27 20:42:20, 411, 0xa8c8c3a9, 104125
2017-08-27 20:42:20, 412, 0x6316c1b6, 104129
2017-08-27 20:42:20, 413, 0x8de7cb87, 104339
2017-08-27 20:42:20, 414, 0xea28f1ec, 104005
2017-08-27 20:42:20, 415, 0x47a18b20, 103845
2017-08-27 20:42:20, 416, 0xe5e24902, 103997
2017-08-27 20:42:20, 417, 0x4774f697, 104043
2017-08-27 20:42:20, 418, 0x81ad0378, 104502
2017-08-27 20:42:20, 419, 0x1679ab1e, 104689
2017-08-27 20:42:20, 420, 0x7e7eac7c, 104442
2017-08-27 20:42:20, 421, 0xf2c7e174, 103839
2017-08-27 20:42:20, 422, 0xf7dc1030, 104478
2017-08-27 20:42:20, 423, 0x855821af, 104117
2017-08-27 20:42:20, 424, 0x134fbcda, 104543
2017-08-27 20:42:20, 425, 0xd198ecee, 104510
2017-08-27 20:42:20, 426, 0x9ef11996, 104421
2017-08-27 20:42:20, 427, 0x3f2fcc7c, 104336
2017-08-27 20:42:20, 428, 0xa70242da, 104211
2017-08-27 20:42:21, 429, 0xf243b3ab, 104469
2017-08-27 20:42:21, 430, 0x2f60f0f6, 104130
2017-08-27 20:42:21, 431, 0x57992c12, 104109
2017-08-27 20:42:21, 432, 0xc1dc5154, 104300
2017-08-27 20:42:21, 433, 0xa629e82c, 103977
2017-08-27 20:42:21, 434, 0x6b6d2a24, 103839
2017-08-27 20:42:21, 435, 0x66647988, 103930
2017-08-27 20:42:21, 436, 0x1f5538eb, 104223
2017-08-27 20:42:21, 437, 0xe6c30de6, 103994
2017-08-27 20:42:21, 438, 0xee4dddbf, 104016
2017-08-27 20:42:21, 439, 0xc7c4b82f, 104530
2017-08-27 20:42:21, 440, 0xc2fea980, 104149
2017-08-27 20:42:21, 441, 0x54bd34d6, 104086
2017-08-27 20:42:21, 442, 0x9d90c17f, 104036
2017-08-27 20:42:21, 443, 0x3ec73ce5, 104000
2017-08-27 20:42:21, 444, 0xcbe4868, 104002
2017-08-27 20:42:21, 445, 0x34427038, 104250
2017-08-27 20:42:21, 446, 0x7c06c4, 104500
2017-08-27 20:42:21, 447, 0xc2e0e4b8, 104471
2017-08-27 20:42:21, 448, 0x3d324667, 104284
2017-08-27 20:42:21, 449, 0x43979f91, 103774
2017-08-27 20:42:21, 450, 0x425d9d14, 104055
2017-08-27 20:42:21, 451, 0x69710fb7, 103800
2017-08-27 20:42:21, 452, 0x8b8ac687, 104157
2017-08-27 20:42:21, 453, 0x1994af2e, 104384
2017-08-27 20:42:21, 454, 0xdb063420, 104178
2017-08-27 20:42:21, 455, 0xba17aa4b, 104368
2017-08-27 20:42:21, 456, 0xb9c81d25, 103662
2017-08-27 20:42:21, 457, 0x8c5ebe70, 104121
2017-08-27 20:42:21, 458, 0x2e0f8156, 104361
2017-08-27 20:42:21, 459, 0x4b8b0d4d, 104518
2017-08-27 20:42:21, 460, 0x86ed6106, 104149
2017-08-27 20:42:21, 461, 0xf268b356, 104098
2017-08-27 20:42:22, 462, 0xecf066df, 104156
2017-08-27 20:42:22, 463, 0xe0cd3d97, 104243
2017-08-27 20:42:22, 464, 0x33a1ec8c, 104116
2017-08-27 20:42:22, 465, 0xb7666a27, 103988
2017-08-27 20:42:22, 466, 0xdd7f3154, 104174
2017-08-27 20:42:22, 467, 0xde1e5dfd, 104040
2017-08-27 20:42:22, 468, 0xa8334f02, 104158
2017-08-27 20:42:22, 469, 0xe69ddc45, 103995
2017-08-27 20:42:22, 470, 0x9ac10b33, 104192
2017-08-27 20:42:22, 471, 0x255094e2, 104312
2017-08-27 20:42:22, 472, 0x6126a99c, 104032
2017-08-27 20:42:22, 473, 0x28d07ef0, 104475
2017-08-27 20:42:22, 474, 0xecb51d1b, 104270
2017-08-27 20:42:22, 475, 0xb76b6084, 103956
2017-08-27 20:42:22, 476, 0x57085c7d, 104300
2017-08-27 20:42:22, 477, 0xa45465e, 104383
2017-08-27 20:42:22, 478, 0xcc6d4015, 104160
2017-08-27 20:42:22, 479, 0x490c7f57, 104098
2017-08-27 20:42:22, 480, 0x44a560d9, 103921
2017-08-27 20:42:22, 481, 0xc770f630, 104100
2017-08-27 20:42:22, 482, 0xfa9213d3, 104290
2017-08-27 20:42:22, 483, 0x8a93113a, 104110
2017-08-27 20:42:22, 484, 0xc90856a5, 104249
2017-08-27 20:42:22, 485, 0xb0db239d, 104089
2017-08-27 20:42:22, 486, 0x7432889b, 104020
2017-08-27 20:42:22, 487, 0xe1fd54b4, 103844
2017-08-27 20:42:22, 488, 0x4af956a8, 104186
2017-08-27 20:42:22, 489, 0x16b11a47, 104022
2017-08-27 20:42:22, 490, 0x1c451751, 104341
2017-08-27 20:42:22, 491, 0x772aa789, 104023
2017-08-27 20:42:22, 492, 0xba5307bd, 104308
2017-08-27 20:42:23, 493, 0xdc5d9f37, 104003
2017-08-27 20:42:23, 494, 0xed43ce2c, 104584
2017-08-27 20:42:23, 495, 0x1cac46ec, 104280
2017-08-27 20:42:23, 496, 0x18d7b740, 103817
2017-08-27 20:42:23, 497, 0x40017551, 104035
2017-08-27 20:42:23, 498, 0xb1a6f844, 103920
2017-08-27 20:42:23, 499, 0xcb1aae4a, 104465
2017-08-27 20:42:23, 500, 0xe739bccc, 103922
2017-08-27 20:42:23, 501, 0xc02d7485, 103978
2017-08-27 20:42:23, 502, 0xadc5f0b3, 104307
2017-08-27 20:42:23, 503, 0x6ec3f17e, 104424
2017-08-27 20:42:23, 504, 0x8d360deb, 104379
2017-08-27 20:42:23, 505, 0x2fb0ecc9, 104353
2017-08-27 20:42:23, 506, 0x81429870, 103992
2017-08-27 20:42:23, 507, 0x2fa2002f, 104157
2017-08-27 20:42:23, 508, 0x1e0ea60e, 104112
2017-08-27 20:42:23, 509, 0x9e5969b9, 104483
2017-08-27 20:42:23, 510, 0xf35af6c6, 104470
2017-08-27 20:42:23, 511, 0x84a61697, 104096
2017-08-27 20:42:23, 512, 0x19455722, 104299
2017-08-27 20:42:23, 513, 0x73567afe, 104396
2017-08-27 20:42:23, 514, 0x9b227306, 104324
2017-08-27 20:42:23, 515, 0xdbd617f, 104319
2017-08-27 20:42:23, 516, 0xda81be11, 104090
2017-08-27 20:42:23, 517, 0xefe0e857, 104048
2017-08-27 20:42:23, 518, 0xd2f377c6, 104379
2017-08-27 20:42:23, 519, 0xea8fab96, 104170
2017-08-27 20:42:23, 520, 0x223e2a1a, 104394
2017-08-27 20:42:23, 521, 0xa47446a, 104150
2017-08-27 20:42:23, 522, 0x1a58ed97, 104140
2017-08-27 20:42:23, 523, 0x546ea045, 104119
2017-08-27 20:42:23, 524, 0x1310ea79, 104184
2017-08-27 20:42:24, 525, 0x12b94b3e, 104113
2017-08-27 20:42:24, 526, 0x6598fce7, 104006
2017-08-27 20:42:24, 527, 0x68be3f95, 104108
2017-08-27 20:42:24, 528, 0x61dee2ae, 103922
2017-08-27 20:42:24, 529, 0x52e33037, 104598
2017-08-27 20:42:24, 530, 0x486a0ad2, 104156
2017-08-27 20:42:24, 531, 0x6f0a3a96, 104202
2017-08-27 20:42:24, 532, 0x8025ef8e, 104223
2017-08-27 20:42:24, 533, 0x3d9bc377, 104164
2017-08-27 20:42:24, 534, 0xea315293, 104021
2017-08-27 20:42:24, 535, 0xa5d79968, 104214
2017-08-27 20:42:24, 536, 0x216104b8, 104057
2017-08-27 20:42:24, 537, 0x597caa77, 103915
2017-08-27 20:42:24, 538, 0x98b8a51e, 104301
2017-08-27 20:42:24, 539, 0xabdf86f9, 104028
2017-08-27 20:42:24, 540, 0x8ad7dbd6, 104159
2017-08-27 20:42:24, 541, 0x306233e9, 104288
2017-08-27 20:42:24, 542, 0xc5bdc00e, 104451
2017-08-27 20:42:24, 543, 0x5397f4fb, 104003
2017-08-27 20:42:24, 544, 0xbad17b0f, 104286
2017-08-27 20:42:24, 545, 0x5147da3e, 104218
2017-08-27 20:42:24, 546, 0xaf0459b1, 104218
2017-08-27 20:42:24, 547, 0x80958513, 104158
2017-08-27 20:42:24, 548, 0xc8045397, 104428
2017-08-27 20:42:24, 549, 0x7bf821fb, 103952
2017-08-27 20:42:24, 550, 0xbe3c1e9c, 104325
2017-08-27 20:42:24, 551, 0x89e13c87, 104167
2017-08-27 20:42:24, 552, 0xec7d9eb6, 104432
2017-08-27 20:42:24, 553, 0x4be6ecce, 103912
2017-08-27 20:42:24, 554, 0xd9a6f28d, 103950
2017-08-27 20:42:24, 555, 0xdc0dbcb5, 104243
2017-08-27 20:42:24, 556, 0x37f57951, 103842
2017-08-27 20:42:24, 557, 0x6a6c7150, 104015
2017-08-27 20:42:25, 558, 0x2ee9888e, 103815
2017-08-27 20:42:25, 559, 0x46263c4e, 104020
2017-08-27 20:42:25, 560, 0x6ccfc588, 103997
2017-08-27 20:42:25, 561, 0x4060006a, 104336
2017-08-27 20:42:25, 562, 0x7eff9e79, 104034
2017-08-27 20:42:25, 563, 0x282e6565, 104113
2017-08-27 20:42:25, 564, 0x27068f17, 104330
2017-08-27 20:42:25, 565, 0x884b85b7, 103976
2017-08-27 20:42:25, 566, 0xa6568d29, 104070
2017-08-27 20:42:25, 567, 0xf801b543, 104636
2017-08-27 20:42:25, 568, 0x1dd499dc, 103917
2017-08-27 20:42:25, 569, 0xf9ef432a, 103832
2017-08-27 20:42:25, 570, 0x601e2c9c, 104195
2017-08-27 20:42:25, 571, 0xbd51ab56, 104276
2017-08-27 20:42:25, 572, 0x5549bd04, 103862
2017-08-27 20:42:25, 573, 0x5b610866, 104483
2017-08-27 20:42:25, 574, 0x3109ac94, 104025
2017-08-27 20:42:25, 575, 0xd10664bf, 104272
2017-08-27 20:42:25, 576, 0x7bcac7e9, 104247
2017-08-27 20:42:25, 577, 0xa313dc40, 104181
2017-08-27 20:42:25, 578, 0xd2ec96f7, 104059
2017-08-27 20:42:25, 579, 0x5628267d, 104271
2017-08-27 20:42:25, 580, 0x582f426, 104163
2017-08-27 20:42:25, 581, 0x68806798, 104216
2017-08-27 20:42:25, 582, 0x9af101d0, 104309
2017-08-27 20:42:25, 583, 0x8032d159, 104413
2017-08-27 20:42:25, 584, 0x46d7c01, 104196
2017-08-27 20:42:25, 585, 0x59432935, 104218
2017-08-27 20:42:25, 586, 0x72a7bd2c, 103952
2017-08-27 20:42:25, 587, 0x148a750d, 103857
2017-08-27 20:42:25, 588, 0x39171fdd, 104096
2017-08-27 20:42:25, 589, 0x5b37b314, 104233
2017-08-27 20:42:26, 590, 0x1a85847e, 104374
2017-08-27 20:42:26, 591, 0x5176ecb9, 103980
2017-08-27 20:42:26, 592, 0x793e8f4b, 103898
2017-08-27 20:42:26, 593, 0x40325a3d, 104001
2017-08-27 20:42:26, 594, 0xfaaadb3d, 103935
2017-08-27 20:42:26, 595, 0xdf57014c, 104234
2017-08-27 20:42:26, 596, 0x82ba54b7, 104458
2017-08-27 20:42:26, 597, 0xe321bb3a, 103851
2017-08-27 20:42:26, 598, 0x339b1f70, 104187
2017-08-27 20:42:26, 599, 0xd463033c, 104232
2017-08-27 20:42:26, 600, 0xf32672b5, 103998
2017-08-27 20:42:26, 601, 0x3f0eb395, 104283
2017-08-27 20:42:26, 602, 0xfd328a74, 104324
2017-08-27 20:42:26, 603, 0xb00e0bb3, 103961
2017-08-27 20:42:26, 604, 0xc626ebc6, 103983
2017-08-27 20:42:26, 605, 0x426f01ed, 103971
2017-08-27 20:42:26, 606, 0xcd08dd44, 104382
2017-08-27 20:42:26, 607, 0xc90c4b17, 103999
2017-08-27 20:42:26, 608, 0xb460f55c, 104326
2017-08-27 20:42:26, 609, 0xda1baaec, 104524
2017-08-27 20:42:26, 610, 0x7eccec94, 104505
2017-08-27 20:42:26, 611, 0xe0fa8933, 104556
2017-08-27 20:42:26, 612, 0x632d2c18, 104210
2017-08-27 20:42:26, 613, 0xbbaf00b9, 104132
2017-08-27 20:42:26, 614, 0x440e127c, 104367
2017-08-27 20:42:26, 615, 0x67d69ca5, 103803
2017-08-27 20:42:26, 616, 0x79fd8d4f, 104176
2017-08-27 20:42:26, 617, 0xa61c26f1, 104606
2017-08-27 20:42:26, 618, 0x4cf140fd, 104027
2017-08-27 20:42:26, 619, 0x44630e8c, 104116
2017-08-27 20:42:26, 620, 0xca963754, 103952
2017-08-27 20:42:26, 621, 0x603a08c4, 104103
2017-08-27 20:42:27, 622, 0x1cb8f93c, 103928
2017-08-27 20:42:27, 623, 0x270782a6, 103679
2017-08-27 20:42:27, 624, 0x381f3443, 104228
2017-08-27 20:42:27, 625, 0x5cdb432f, 104517
2017-08-27 20:42:27, 626, 0x60dcdf90, 104165
2017-08-27 20:42:27, 627, 0x815d42a3, 104309
2017-08-27 20:42:27, 628, 0xb79b5c6, 104167
2017-08-27 20:42:27, 629, 0x9d0d5871, 104404
2017-08-27 20:42:27, 630, 0x97ab0c3d, 104076
2017-08-27 20:42:27, 631, 0x1eadd29a, 103886
2017-08-27 20:42:27, 632, 0x410bca9d, 104163
2017-08-27 20:42:27, 633, 0xb3ad3f76, 104072
2017-08-27 20:42:27, 634, 0x9dd26d38, 104019
2017-08-27 20:42:27, 635, 0x7ba918f6, 104138
2017-08-27 20:42:27, 636, 0xfc261e1c, 104116
2017-08-27 20:42:27, 637, 0xfd5f4ced, 103737
2017-08-27 20:42:27, 638, 0xf108cc59, 104137
2017-08-27 20:42:27, 639, 0x2543dbbb, 103862
2017-08-27 20:42:27, 640, 0x651f73aa, 103875
2017-08-27 20:42:27, 641, 0xc0b97dbe, 103744
2017-08-27 20:42:27, 642, 0xaecd05ef, 104592
2017-08-27 20:42:27, 643, 0x4d157456, 104332
2017-08-27 20:42:27, 644, 0xe1873f38, 103860
2017-08-27 20:42:27, 645, 0x91bb37b9, 104139
2017-08-27 20:42:27, 646, 0xd79931c6, 104464
2017-08-27 20:42:27, 647, 0x97681425, 104427
2017-08-27 20:42:27, 648, 0x8563b6c8, 104253
2017-08-27 20:42:27, 649, 0x3cc1edb2, 104238
2017-08-27 20:42:27, 650, 0x7a1bfce3, 104302
2017-08-27 20:42:27, 651, 0x26f85bc4, 104185
2017-08-27 20:42:27, 652, 0x12087333, 104254
2017-08-27 20:42:27, 653, 0x8718d398, 103980
2017-08-27 20:42:28, 654, 0x9de6a33c, 104436
2017-08-27 20:42:28, 655, 0xd8428a38, 104077
2017-08-27 20:42:28, 656, 0xa18a7cff, 104145
2017-08-27 20:42:28, 657, 0x2941d5d4, 104267
2017-08-27 20:42:28, 658, 0x4ac23ca0, 104271
2017-08-27 20:42:28, 659, 0xe8e2c5e, 104450
2017-08-27 20:42:28, 660, 0xa4652f7, 104150
2017-08-27 20:42:28, 661, 0x3cf3a1b4, 103816
2017-08-27 20:42:28, 662, 0xbdb866bd, 104351
2017-08-27 20:42:28, 663, 0xa5272678, 104019
2017-08-27 20:42:28, 664, 0xc0622103, 104311
2017-08-27 20:42:28, 665, 0xdcaeafdd, 104565
2017-08-27 20:42:28, 666, 0x8efeb7cb, 104326
2017-08-27 20:42:28, 667, 0xb4b7d66d, 104109
2017-08-27 20:42:28, 668, 0x7c5e5437, 103812
2017-08-27 20:42:28, 669, 0xa607f924, 104230
2017-08-27 20:42:28, 670, 0x9f1126f6, 104020
2017-08-27 20:42:28, 671, 0x8925fdba, 104262
2017-08-27 20:42:28, 672, 0xa5f52976, 104237
2017-08-27 20:42:28, 673, 0xfd0e854f, 104262
2017-08-27 20:42:28, 674, 0x50a14c31, 104114
2017-08-27 20:42:28, 675, 0x2c468beb, 103924
2017-08-27 20:42:28, 676, 0x445f246, 103592
2017-08-27 20:42:28, 677, 0x24b7fe92, 104482
2017-08-27 20:42:28, 678, 0x52538bb0, 104266
2017-08-27 20:42:28, 679, 0x4ed54559, 104151
2017-08-27 20:42:28, 680, 0x919453bd, 104093
2017-08-27 20:42:28, 681, 0x6a8860b4, 104197
2017-08-27 20:42:28, 682, 0xf3357752, 104113
2017-08-27 20:42:28, 683, 0xb35ce98e, 104401
2017-08-27 20:42:28, 684, 0x183dcca2, 104234
2017-08-27 20:42:28, 685, 0x943ebde6, 104010
2017-08-27 20:42:29, 686, 0xe1378179, 104645
2017-08-27 20:42:29, 687, 0xd47e8a26, 103964
2017-08-27 20:42:29, 688, 0xb29d711f, 104236
2017-08-27 20:42:29, 689, 0x4cc2d241, 103873
2017-08-27 20:42:29, 690, 0xd77f4f86, 103455
2017-08-27 20:42:29, 691, 0xc7e9a3ca, 104282
2017-08-27 20:42:29, 692, 0xe1fa7b42, 104311
2017-08-27 20:42:29, 693, 0x2bd7d9c8, 103964
2017-08-27 20:42:29, 694, 0xa5ca62fb, 104345
2017-08-27 20:42:29, 695, 0xbe4c9941, 103916
2017-08-27 20:42:29, 696, 0xb6e2c9c2, 104248
2017-08-27 20:42:29, 697, 0xba655c5f, 104185
2017-08-27 20:42:29, 698, 0x417fd51c, 103862
2017-08-27 20:42:29, 699, 0x31569726, 103988
2017-08-27 20:42:29, 700, 0x57e31aa6, 104267
2017-08-27 20:42:29, 701, 0xb8f1e13a, 103994
2017-08-27 20:42:29, 702, 0x404c6936, 104130
2017-08-27 20:42:29, 703, 0xb0258215, 104179
2017-08-27 20:42:29, 704, 0x1d017074, 104121
2017-08-27 20:42:29, 705, 0xe8a9f91f, 104171
2017-08-27 20:42:29, 706, 0x50bab19a, 104038
2017-08-27 20:42:29, 707, 0x4d7dd139, 103955
2017-08-27 20:42:29, 708, 0x7a2e2c69, 104547
2017-08-27 20:42:29, 709, 0x7f7b379d, 104414
2017-08-27 20:42:29, 710, 0x58867099, 104091
2017-08-27 20:42:29, 711, 0xb174d0cb, 104282
2017-08-27 20:42:29, 712, 0x5fcd9d7a, 103868
2017-08-27 20:42:29, 713, 0x5cbdb840, 104052
2017-08-27 20:42:29, 714, 0x3674a046, 104371
2017-08-27 20:42:29, 715, 0xc2133a9b, 104060
2017-08-27 20:42:29, 716, 0x447ed349, 104155
2017-08-27 20:42:29, 717, 0x35e5d3a3, 103874
2017-08-27 20:42:30, 718, 0x2c2c63e6, 104666
2017-08-27 20:42:30, 719, 0x41a472ac, 104215
2017-08-27 20:42:30, 720, 0xd2fffc68, 104296
2017-08-27 20:42:30, 721, 0x22979ac8, 104176
2017-08-27 20:42:30, 722, 0x2f27b4bb, 104091
2017-08-27 20:42:30, 723, 0x4512361, 104005
2017-08-27 20:42:30, 724, 0xadd237f, 104234
2017-08-27 20:42:30, 725, 0x5996253, 104183
2017-08-27 20:42:30, 726, 0x98a6ca64, 104631
2017-08-27 20:42:30, 727, 0xf440072a, 104320
2017-08-27 20:42:30, 728, 0x2e40912f, 103833
2017-08-27 20:42:30, 729, 0x807066b2, 104346
2017-08-27 20:42:30, 730, 0xc41bf92e, 104148
2017-08-27 20:42:30, 731, 0xe4f1f657, 104139
2017-08-27 20:42:30, 732, 0x9670b33d, 103829
2017-08-27 20:42:30, 733, 0x3b0fcc65, 103951
2017-08-27 20:42:30, 734, 0x89714c6c, 104208
2017-08-27 20:42:30, 735, 0x9234b484, 103955
2017-08-27 20:42:30, 736, 0x9a134dca, 103973
2017-08-27 20:42:30, 737, 0xb01cf145, 103941
2017-08-27 20:42:30, 738, 0x22473f35, 104548
2017-08-27 20:42:30, 739, 0x9edb9de6, 104251
2017-08-27 20:42:30, 740, 0xa84835ff, 104138
2017-08-27 20:42:30, 741, 0x92ac112b, 104288
2017-08-27 20:42:30, 742, 0xd1e853dc, 104450
2017-08-27 20:42:30, 743, 0x4e6e889d, 104117
2017-08-27 20:42:30, 744, 0x9ebc7a95, 104335
2017-08-27 20:42:30, 745, 0x68c8150a, 104225
2017-08-27 20:42:30, 746, 0x7ca46a80, 104051
2017-08-27 20:42:30, 747, 0xe155d913, 104084
2017-08-27 20:42:30, 748, 0x7d29c3f2, 104294
2017-08-27 20:42:30, 749, 0xd6b5e62a, 104270
2017-08-27 20:42:31, 750, 0x3313e4a0, 104147
2017-08-27 20:42:31, 751, 0xef014fc, 104107
2017-08-27 20:42:31, 752, 0xe25aee7, 104305
2017-08-27 20:42:31, 753, 0x3552f35e, 104198
2017-08-27 20:42:31, 754, 0xcac28d6b, 103820
2017-08-27 20:42:31, 755, 0xaca19bed, 104123
2017-08-27 20:42:31, 756, 0xa239a796, 104279
2017-08-27 20:42:31, 757, 0x294f4efd, 104098
2017-08-27 20:42:31, 758, 0xd58ac770, 104030
2017-08-27 20:42:31, 759, 0xf99cc9ec, 103968
2017-08-27 20:42:31, 760, 0xc4662e7d, 103845
2017-08-27 20:42:31, 761, 0x58bda5d, 104367
2017-08-27 20:42:31, 762, 0xa0b1fceb, 104166
2017-08-27 20:42:31, 763, 0xc0c2ea5b, 104626
2017-08-27 20:42:31, 764, 0x1c3b1c22, 103958
2017-08-27 20:42:31, 765, 0xcfe671e0, 104248
2017-08-27 20:42:31, 766, 0xd5eef5c7, 103814
2017-08-27 20:42:31, 767, 0x299670f8, 104274
2017-08-27 20:42:31, 768, 0xf14a0e8b, 104259
2017-08-27 20:42:31, 769, 0x14dfc2bf, 104459
2017-08-27 20:42:31, 770, 0x86ca4252, 104551
2017-08-27 20:42:31, 771, 0x7f38a315, 104063
2017-08-27 20:42:31, 772, 0x6a4b2ae8, 104093
2017-08-27 20:42:31, 773, 0x176cedcc, 103937
2017-08-27 20:42:31, 774, 0xd6575b58, 104252
2017-08-27 20:42:31, 775, 0xdac1a22a, 104277
2017-08-27 20:42:31, 776, 0x5e9a0a0a, 104067
2017-08-27 20:42:31, 777, 0x3af4c32d, 103707
2017-08-27 20:42:31, 778, 0x27bfc171, 104318
2017-08-27 20:42:31, 779, 0x3c3cca27, 104134
2017-08-27 20:42:31, 780, 0x24d743b, 103996
2017-08-27 20:42:31, 781, 0x2e54050d, 104465
2017-08-27 20:42:32, 782, 0xb094ac5c, 104450
2017-08-27 20:42:32, 783, 0xd922c2bd, 103727
2017-08-27 20:42:32, 784, 0x19ad5f4a, 104052
2017-08-27 20:42:32, 785, 0x9db345a1, 104059
2017-08-27 20:42:32, 786, 0x58d4353b, 104009
2017-08-27 20:42:32, 787, 0x5106a378, 104382
2017-08-27 20:42:32, 788, 0x6138cf61, 103489
2017-08-27 20:42:32, 789, 0x3cd837fe, 104252
2017-08-27 20:42:32, 790, 0x6316620c, 104032
2017-08-27 20:42:32, 791, 0xb78f1a0b, 103887
2017-08-27 20:42:32, 792, 0x61b8dea2, 104271
2017-08-27 20:42:32, 793, 0x9fc404d5, 104072
2017-08-27 20:42:32, 794, 0xf3a67343, 104153
2017-08-27 20:42:32, 795, 0xcad01312, 104030
2017-08-27 20:42:32, 796, 0xc28d9ce2, 104106
2017-08-27 20:42:32, 797, 0xcb6d78c3, 104183
2017-08-27 20:42:32, 798, 0x5c1c1f05, 104076
2017-08-27 20:42:32, 799, 0x1bcb5b7e, 104301
